%YAML 1.1
%TAG !u! tag:unity3d.com,2011:
--- !u!114 &11400000
MonoBehaviour:
  m_ObjectHideFlags: 0
  m_CorrespondingSourceObject: {fileID: 0}
  m_PrefabInstance: {fileID: 0}
  m_PrefabAsset: {fileID: 0}
  m_GameObject: {fileID: 0}
  m_Enabled: 1
  m_EditorHideFlags: 0
  m_Script: {fileID: 11500000, guid: bbb281ee3bf0b054c82ac2347e9e782c, type: 3}
  m_Name: Box
  m_EditorClassIdentifier: 
  m_GroupName: Box
  m_Data:
    m_SerializedData: []
  m_GUID: a60de086d531edb41b25674d791424b1
  m_SerializeEntries:
  - m_GUID: 04af3cc3ab86cfd45b00211b28a79310
    m_Address: Assets/Images/Box/box_29.png
    m_ReadOnly: 0
    m_SerializedLabels:
    - BoxLabel
    - ChapterBoxes
    m_mainAssetType: UnityEngine.Texture2D, UnityEngine.CoreModule, Version=0.0.0.0,
      Culture=neutral, PublicKeyToken=null
    m_MainAsset: {fileID: 2800000, guid: 04af3cc3ab86cfd45b00211b28a79310, type: 3}
    m_TargetAsset: {fileID: 2800000, guid: 04af3cc3ab86cfd45b00211b28a79310, type: 3}
  - m_GUID: 04e10b6ac400349e3aa6961f0434d168
    m_Address: Assets/Images/Box/box_10_woodcutters.png
    m_ReadOnly: 0
    m_SerializedLabels:
    - BoxLabel
    - ChapterBoxes
    m_mainAssetType: UnityEngine.Texture2D, UnityEngine.CoreModule, Version=0.0.0.0,
      Culture=neutral, PublicKeyToken=null
    m_MainAsset: {fileID: 2800000, guid: 04e10b6ac400349e3aa6961f0434d168, type: 3}
    m_TargetAsset: {fileID: 2800000, guid: 04e10b6ac400349e3aa6961f0434d168, type: 3}
  - m_GUID: 067ff4c02c5db6447bed15e873942892
    m_Address: Assets/Images/Box/box_20.png
    m_ReadOnly: 0
    m_SerializedLabels:
    - BoxLabel
    - ChapterBoxes
    m_mainAssetType: UnityEngine.Texture2D, UnityEngine.CoreModule, Version=0.0.0.0,
      Culture=neutral, PublicKeyToken=null
    m_MainAsset: {fileID: 2800000, guid: 067ff4c02c5db6447bed15e873942892, type: 3}
    m_TargetAsset: {fileID: 2800000, guid: 067ff4c02c5db6447bed15e873942892, type: 3}
  - m_GUID: 0fb024a44ae732446aa1e1d90dbbafc9
    m_Address: Assets/Images/Box/box_10.png
    m_ReadOnly: 0
    m_SerializedLabels:
    - BoxLabel
    - ChapterBoxes
    m_mainAssetType: UnityEngine.Texture2D, UnityEngine.CoreModule, Version=0.0.0.0,
      Culture=neutral, PublicKeyToken=null
    m_MainAsset: {fileID: 2800000, guid: 0fb024a44ae732446aa1e1d90dbbafc9, type: 3}
    m_TargetAsset: {fileID: 2800000, guid: 0fb024a44ae732446aa1e1d90dbbafc9, type: 3}
  - m_GUID: 234db35ece335224dad70d671e531bea
    m_Address: Assets/Images/Box/box_27.png
    m_ReadOnly: 0
    m_SerializedLabels:
    - BoxLabel
    - ChapterBoxes
    m_mainAssetType: UnityEngine.Texture2D, UnityEngine.CoreModule, Version=0.0.0.0,
      Culture=neutral, PublicKeyToken=null
    m_MainAsset: {fileID: 2800000, guid: 234db35ece335224dad70d671e531bea, type: 3}
    m_TargetAsset: {fileID: 2800000, guid: 234db35ece335224dad70d671e531bea, type: 3}
  - m_GUID: 2ac373b2fa5c5440fb8e8f629f191563
    m_Address: Assets/Images/Box/box_01.png
    m_ReadOnly: 0
    m_SerializedLabels:
    - BoxLabel
    - ChapterBoxes
    m_mainAssetType: UnityEngine.Texture2D, UnityEngine.CoreModule, Version=0.0.0.0,
      Culture=neutral, PublicKeyToken=null
    m_MainAsset: {fileID: 2800000, guid: 2ac373b2fa5c5440fb8e8f629f191563, type: 3}
    m_TargetAsset: {fileID: 2800000, guid: 2ac373b2fa5c5440fb8e8f629f191563, type: 3}
  - m_GUID: 2c3b715e6203e53449a22bb83d98c8b6
    m_Address: Assets/Images/Box/box_21.png
    m_ReadOnly: 0
    m_SerializedLabels:
    - BoxLabel
    - ChapterBoxes
    m_mainAssetType: UnityEngine.Texture2D, UnityEngine.CoreModule, Version=0.0.0.0,
      Culture=neutral, PublicKeyToken=null
    m_MainAsset: {fileID: 2800000, guid: 2c3b715e6203e53449a22bb83d98c8b6, type: 3}
    m_TargetAsset: {fileID: 2800000, guid: 2c3b715e6203e53449a22bb83d98c8b6, type: 3}
  - m_GUID: 37accaf8af5d04bab91b554b75889cc8
    m_Address: Assets/Images/Box/box_06.png
    m_ReadOnly: 0
    m_SerializedLabels:
    - BoxLabel
    - ChapterBoxes
    m_mainAssetType: UnityEngine.Texture2D, UnityEngine.CoreModule, Version=0.0.0.0,
      Culture=neutral, PublicKeyToken=null
    m_MainAsset: {fileID: 2800000, guid: 37accaf8af5d04bab91b554b75889cc8, type: 3}
    m_TargetAsset: {fileID: 2800000, guid: 37accaf8af5d04bab91b554b75889cc8, type: 3}
  - m_GUID: 394360b38815be548a4bf191be0bbb4b
    m_Address: Assets/Images/Box/box_22.png
    m_ReadOnly: 0
    m_SerializedLabels:
    - BoxLabel
    - ChapterBoxes
    m_mainAssetType: UnityEngine.Texture2D, UnityEngine.CoreModule, Version=0.0.0.0,
      Culture=neutral, PublicKeyToken=null
    m_MainAsset: {fileID: 2800000, guid: 394360b38815be548a4bf191be0bbb4b, type: 3}
    m_TargetAsset: {fileID: 2800000, guid: 394360b38815be548a4bf191be0bbb4b, type: 3}
  - m_GUID: 57015b3dd9273d74ab09c197d79e744b
    m_Address: Assets/Images/Box/box_26.png
    m_ReadOnly: 0
    m_SerializedLabels:
    - BoxLabel
    - ChapterBoxes
    m_mainAssetType: UnityEngine.Texture2D, UnityEngine.CoreModule, Version=0.0.0.0,
      Culture=neutral, PublicKeyToken=null
    m_MainAsset: {fileID: 2800000, guid: 57015b3dd9273d74ab09c197d79e744b, type: 3}
    m_TargetAsset: {fileID: 2800000, guid: 57015b3dd9273d74ab09c197d79e744b, type: 3}
  - m_GUID: 5b7bbd7f28ab24c0e94ec0593420ffad
    m_Address: Assets/Images/Box/box_05.png
    m_ReadOnly: 0
    m_SerializedLabels:
    - BoxLabel
    - ChapterBoxes
    m_mainAssetType: UnityEngine.Texture2D, UnityEngine.CoreModule, Version=0.0.0.0,
      Culture=neutral, PublicKeyToken=null
    m_MainAsset: {fileID: 2800000, guid: 5b7bbd7f28ab24c0e94ec0593420ffad, type: 3}
    m_TargetAsset: {fileID: 2800000, guid: 5b7bbd7f28ab24c0e94ec0593420ffad, type: 3}
  - m_GUID: 5c460ba3a3e5949cdaf86f5e22eb022e
    m_Address: Assets/Images/Box/box_15.png
    m_ReadOnly: 0
    m_SerializedLabels:
    - BoxLabel
    - ChapterBoxes
    m_mainAssetType: UnityEngine.Texture2D, UnityEngine.CoreModule, Version=0.0.0.0,
      Culture=neutral, PublicKeyToken=null
    m_MainAsset: {fileID: 2800000, guid: 5c460ba3a3e5949cdaf86f5e22eb022e, type: 3}
    m_TargetAsset: {fileID: 2800000, guid: 5c460ba3a3e5949cdaf86f5e22eb022e, type: 3}
  - m_GUID: 61020826899e14ce59773ddbba23fabf
    m_Address: Assets/Images/Box/box_11.png
    m_ReadOnly: 0
    m_SerializedLabels:
    - BoxLabel
    - ChapterBoxes
    m_mainAssetType: UnityEngine.Texture2D, UnityEngine.CoreModule, Version=0.0.0.0,
      Culture=neutral, PublicKeyToken=null
    m_MainAsset: {fileID: 2800000, guid: 61020826899e14ce59773ddbba23fabf, type: 3}
    m_TargetAsset: {fileID: 2800000, guid: 61020826899e14ce59773ddbba23fabf, type: 3}
  - m_GUID: 6b5aa045685a04da9935ce281cdb2482
    m_Address: Assets/Images/Box/box_04.png
    m_ReadOnly: 0
    m_SerializedLabels:
    - BoxLabel
    - ChapterBoxes
    m_mainAssetType: UnityEngine.Texture2D, UnityEngine.CoreModule, Version=0.0.0.0,
      Culture=neutral, PublicKeyToken=null
    m_MainAsset: {fileID: 2800000, guid: 6b5aa045685a04da9935ce281cdb2482, type: 3}
    m_TargetAsset: {fileID: 2800000, guid: 6b5aa045685a04da9935ce281cdb2482, type: 3}
  - m_GUID: 6bd69cc7e1370284c9d1a8e24a81f199
    m_Address: Assets/Images/Box/box_23.png
    m_ReadOnly: 0
    m_SerializedLabels:
    - BoxLabel
    - ChapterBoxes
    m_mainAssetType: UnityEngine.Texture2D, UnityEngine.CoreModule, Version=0.0.0.0,
      Culture=neutral, PublicKeyToken=null
    m_MainAsset: {fileID: 2800000, guid: 6bd69cc7e1370284c9d1a8e24a81f199, type: 3}
    m_TargetAsset: {fileID: 2800000, guid: 6bd69cc7e1370284c9d1a8e24a81f199, type: 3}
  - m_GUID: 70dba73becfdcc44ea96587ef4565061
    m_Address: Assets/Images/Box/box_16.png
    m_ReadOnly: 0
    m_SerializedLabels:
    - BoxLabel
    - ChapterBoxes
    m_mainAssetType: UnityEngine.Texture2D, UnityEngine.CoreModule, Version=0.0.0.0,
      Culture=neutral, PublicKeyToken=null
    m_MainAsset: {fileID: 2800000, guid: 70dba73becfdcc44ea96587ef4565061, type: 3}
    m_TargetAsset: {fileID: 2800000, guid: 70dba73becfdcc44ea96587ef4565061, type: 3}
  - m_GUID: 825b8931c5ac34eee8afa7b97914bbb9
    m_Address: Assets/Images/Box/box_08.png
    m_ReadOnly: 0
    m_SerializedLabels:
    - BoxLabel
    - ChapterBoxes
    m_mainAssetType: UnityEngine.Texture2D, UnityEngine.CoreModule, Version=0.0.0.0,
      Culture=neutral, PublicKeyToken=null
    m_MainAsset: {fileID: 2800000, guid: 825b8931c5ac34eee8afa7b97914bbb9, type: 3}
    m_TargetAsset: {fileID: 2800000, guid: 825b8931c5ac34eee8afa7b97914bbb9, type: 3}
  - m_GUID: 855594ac97d8bc943a900092a3144aaf
    m_Address: Assets/Images/Box/box_25.png
    m_ReadOnly: 0
    m_SerializedLabels:
    - BoxLabel
    - ChapterBoxes
    m_mainAssetType: UnityEngine.Texture2D, UnityEngine.CoreModule, Version=0.0.0.0,
      Culture=neutral, PublicKeyToken=null
    m_MainAsset: {fileID: 2800000, guid: 855594ac97d8bc943a900092a3144aaf, type: 3}
    m_TargetAsset: {fileID: 2800000, guid: 855594ac97d8bc943a900092a3144aaf, type: 3}
  - m_GUID: 882a3ec8f6b754821bae149c0e446fe0
    m_Address: Assets/Images/Box/box_14.png
    m_ReadOnly: 0
    m_SerializedLabels:
    - BoxLabel
    - ChapterBoxes
    m_mainAssetType: UnityEngine.Texture2D, UnityEngine.CoreModule, Version=0.0.0.0,
      Culture=neutral, PublicKeyToken=null
    m_MainAsset: {fileID: 2800000, guid: 882a3ec8f6b754821bae149c0e446fe0, type: 3}
    m_TargetAsset: {fileID: 2800000, guid: 882a3ec8f6b754821bae149c0e446fe0, type: 3}
  - m_GUID: 88e38db1ebc8a4bbca62d26c6081662a
    m_Address: Assets/Images/Box/box_07.png
    m_ReadOnly: 0
    m_SerializedLabels:
    - BoxLabel
    - ChapterBoxes
    m_mainAssetType: UnityEngine.Texture2D, UnityEngine.CoreModule, Version=0.0.0.0,
      Culture=neutral, PublicKeyToken=null
    m_MainAsset: {fileID: 2800000, guid: 88e38db1ebc8a4bbca62d26c6081662a, type: 3}
    m_TargetAsset: {fileID: 2800000, guid: 88e38db1ebc8a4bbca62d26c6081662a, type: 3}
  - m_GUID: 8aa766a3bba514887b24687f826faa27
    m_Address: Assets/Images/Box/box_12.png
    m_ReadOnly: 0
    m_SerializedLabels:
    - BoxLabel
    - ChapterBoxes
    m_mainAssetType: UnityEngine.Texture2D, UnityEngine.CoreModule, Version=0.0.0.0,
      Culture=neutral, PublicKeyToken=null
    m_MainAsset: {fileID: 2800000, guid: 8aa766a3bba514887b24687f826faa27, type: 3}
    m_TargetAsset: {fileID: 2800000, guid: 8aa766a3bba514887b24687f826faa27, type: 3}
  - m_GUID: 8cc538bb7e7520b45ace8ea87f082c8c
    m_Address: Assets/Images/Box/box_xx.psd
    m_ReadOnly: 0
    m_SerializedLabels:
    - BoxLabel
    - ChapterBoxes
    m_mainAssetType: UnityEngine.Texture2D, UnityEngine.CoreModule, Version=0.0.0.0,
      Culture=neutral, PublicKeyToken=null
    m_MainAsset: {fileID: 2800000, guid: 8cc538bb7e7520b45ace8ea87f082c8c, type: 3}
    m_TargetAsset: {fileID: 2800000, guid: 8cc538bb7e7520b45ace8ea87f082c8c, type: 3}
  - m_GUID: a49d0d9462fca416984e308afd15aaf3
    m_Address: Assets/Images/Box/box_03.png
    m_ReadOnly: 0
    m_SerializedLabels:
    - BoxLabel
    - ChapterBoxes
    m_mainAssetType: UnityEngine.Texture2D, UnityEngine.CoreModule, Version=0.0.0.0,
      Culture=neutral, PublicKeyToken=null
    m_MainAsset: {fileID: 2800000, guid: a49d0d9462fca416984e308afd15aaf3, type: 3}
    m_TargetAsset: {fileID: 2800000, guid: a49d0d9462fca416984e308afd15aaf3, type: 3}
  - m_GUID: a54666c3781f6cc478cfd0c6681e3442
    m_Address: Assets/Images/Box/box_17.png
    m_ReadOnly: 0
    m_SerializedLabels:
    - BoxLabel
    - ChapterBoxes
    m_mainAssetType: UnityEngine.Texture2D, UnityEngine.CoreModule, Version=0.0.0.0,
      Culture=neutral, PublicKeyToken=null
    m_MainAsset: {fileID: 2800000, guid: a54666c3781f6cc478cfd0c6681e3442, type: 3}
    m_TargetAsset: {fileID: 2800000, guid: a54666c3781f6cc478cfd0c6681e3442, type: 3}
  - m_GUID: ac9a2c44bca9bd24cbdb0a041f390998
    m_Address: Assets/Images/Box/box_30.png
    m_ReadOnly: 0
    m_SerializedLabels:
    - BoxLabel
    - ChapterBoxes
    m_mainAssetType: UnityEngine.Texture2D, UnityEngine.CoreModule, Version=0.0.0.0,
      Culture=neutral, PublicKeyToken=null
    m_MainAsset: {fileID: 2800000, guid: ac9a2c44bca9bd24cbdb0a041f390998, type: 3}
    m_TargetAsset: {fileID: 2800000, guid: ac9a2c44bca9bd24cbdb0a041f390998, type: 3}
  - m_GUID: bcae12577493946a9ad9d9876ce89af4
    m_Address: Assets/Images/Box/box_13.png
    m_ReadOnly: 0
    m_SerializedLabels:
    - BoxLabel
    - ChapterBoxes
    m_mainAssetType: UnityEngine.Texture2D, UnityEngine.CoreModule, Version=0.0.0.0,
      Culture=neutral, PublicKeyToken=null
    m_MainAsset: {fileID: 2800000, guid: bcae12577493946a9ad9d9876ce89af4, type: 3}
    m_TargetAsset: {fileID: 2800000, guid: bcae12577493946a9ad9d9876ce89af4, type: 3}
  - m_GUID: cb0d9af43136c9e4cb3c8bceefe4c31f
    m_Address: Assets/Images/Box/box_28.png
    m_ReadOnly: 0
    m_SerializedLabels:
    - BoxLabel
    - ChapterBoxes
    m_mainAssetType: UnityEngine.Texture2D, UnityEngine.CoreModule, Version=0.0.0.0,
      Culture=neutral, PublicKeyToken=null
    m_MainAsset: {fileID: 2800000, guid: cb0d9af43136c9e4cb3c8bceefe4c31f, type: 3}
    m_TargetAsset: {fileID: 2800000, guid: cb0d9af43136c9e4cb3c8bceefe4c31f, type: 3}
  - m_GUID: cbfa44539206cfe4686ed7ee53d9040f
    m_Address: Assets/Images/Box/box_19.png
    m_ReadOnly: 0
    m_SerializedLabels:
    - BoxLabel
    - ChapterBoxes
    m_mainAssetType: UnityEngine.Texture2D, UnityEngine.CoreModule, Version=0.0.0.0,
      Culture=neutral, PublicKeyToken=null
    m_MainAsset: {fileID: 2800000, guid: cbfa44539206cfe4686ed7ee53d9040f, type: 3}
    m_TargetAsset: {fileID: 2800000, guid: cbfa44539206cfe4686ed7ee53d9040f, type: 3}
  - m_GUID: cc6006c6833503545b313998ae330399
    m_Address: Assets/Images/Box/box_18.png
    m_ReadOnly: 0
    m_SerializedLabels:
    - BoxLabel
    - ChapterBoxes
    m_mainAssetType: UnityEngine.Texture2D, UnityEngine.CoreModule, Version=0.0.0.0,
      Culture=neutral, PublicKeyToken=null
    m_MainAsset: {fileID: 2800000, guid: cc6006c6833503545b313998ae330399, type: 3}
    m_TargetAsset: {fileID: 2800000, guid: cc6006c6833503545b313998ae330399, type: 3}
  - m_GUID: d6e409d35a58e3e40b2e84e8b14acafe
    m_Address: Assets/Images/Box/box_24.png
    m_ReadOnly: 0
    m_SerializedLabels:
    - BoxLabel
    - ChapterBoxes
    m_mainAssetType: UnityEngine.Texture2D, UnityEngine.CoreModule, Version=0.0.0.0,
      Culture=neutral, PublicKeyToken=null
    m_MainAsset: {fileID: 2800000, guid: d6e409d35a58e3e40b2e84e8b14acafe, type: 3}
    m_TargetAsset: {fileID: 2800000, guid: d6e409d35a58e3e40b2e84e8b14acafe, type: 3}
  - m_GUID: e0b6baba625de44698ae55498b9661f3
    m_Address: Assets/Images/Box/box_02.png
    m_ReadOnly: 0
    m_SerializedLabels:
    - BoxLabel
    - ChapterBoxes
    m_mainAssetType: UnityEngine.Texture2D, UnityEngine.CoreModule, Version=0.0.0.0,
      Culture=neutral, PublicKeyToken=null
    m_MainAsset: {fileID: 2800000, guid: e0b6baba625de44698ae55498b9661f3, type: 3}
    m_TargetAsset: {fileID: 2800000, guid: e0b6baba625de44698ae55498b9661f3, type: 3}
  - m_GUID: f7a8218a07d5347b283e12db51202f62
    m_Address: Assets/Images/Box/box_09.png
    m_ReadOnly: 0
    m_SerializedLabels:
    - BoxLabel
    - ChapterBoxes
    m_mainAssetType: UnityEngine.Texture2D, UnityEngine.CoreModule, Version=0.0.0.0,
      Culture=neutral, PublicKeyToken=null
    m_MainAsset: {fileID: 2800000, guid: f7a8218a07d5347b283e12db51202f62, type: 3}
    m_TargetAsset: {fileID: 2800000, guid: f7a8218a07d5347b283e12db51202f62, type: 3}
  m_ReadOnly: 0
  m_Settings: {fileID: 11400000, guid: 59f09b303960e8a4799f4bbdde39702b, type: 2}
  m_SchemaSet:
    m_Schemas:
    - {fileID: 11400000, guid: 2efba55a51495b7498e0c727931daec2, type: 2}
    - {fileID: 11400000, guid: 4fd4ff65992afff439d8d8f379608c55, type: 2}
