%YAML 1.1
%TAG !u! tag:unity3d.com,2011:
--- !u!162 &1
EditorUserSettings:
  m_ObjectHideFlags: 0
  serializedVersion: 4
  m_ConfigSettings:
    RecentlyUsedSceneGuid-0:
      value: 5102505552000a59595d5c23437708131715412b7d7a22642c7d1e36bbb8616f
      flags: 0
    RecentlyUsedSceneGuid-1:
      value: 55520c0207040f0e5a0d5b2040265b4441154b797f2a71677b7c186ab0e1666d
      flags: 0
    RecentlyUsedSceneGuid-2:
      value: 565457510600590e09575e2649770749104f4b7f752b75617d7b4a63b4b2666b
      flags: 0
    RecentlyUsedSceneGuid-3:
      value: 015256555c535c0a5f5d087513270c44424f4c2c742b74352e2a1e63b1b9643d
      flags: 0
    RecentlyUsedSceneGuid-4:
      value: 0752505f00050f5a5c5c5c7242775c42154e407f7c71203328781831bab23261
      flags: 0
    RecentlyUsedSceneGuid-5:
      value: 5b5702050301510f085c0f7343770616404e19727b7820692f2f4d6ae3e63269
      flags: 0
    RecentlyUsedSceneGuid-6:
      value: 52030252030d5a08095f0875467706414f16492f287c71352f781e60bae5653d
      flags: 0
    UnityRemoteDevice:
      value: 225f4d46245b0d4902070862342649191512
      flags: 0
    vcSharedLogLevel:
      value: 0d5e400f0650
      flags: 0
  m_VCAutomaticAdd: 1
  m_VCDebugCom: 0
  m_VCDebugCmd: 0
  m_VCDebugOut: 0
  m_SemanticMergeMode: 2
  m_DesiredImportWorkerCount: 4
  m_StandbyImportWorkerCount: 2
  m_IdleImportWorkerShutdownDelay: 60000
  m_VCShowFailedCheckout: 1
  m_VCOverwriteFailedCheckoutAssets: 1
  m_VCProjectOverlayIcons: 1
  m_VCHierarchyOverlayIcons: 1
  m_VCOtherOverlayIcons: 1
  m_VCAllowAsyncUpdate: 0
  m_ArtifactGarbageCollection: 1
